<svg width="47" height="67" viewBox="0 0 47 67" fill="none" xmlns="http://www.w3.org/2000/svg">
<g clip-path="url(#clip0_6224_125)">
<path d="M41.6861 62.1604C41.6861 62.1604 33.2664 68.1483 24.9731 66.2737C16.6798 64.3991 11.6533 55.3718 11.6533 55.3718C11.6533 55.3718 20.073 49.3839 28.3663 51.2586C36.6596 53.1332 41.6861 62.1604 41.6861 62.1604Z" fill="#7675FD"/>
<path d="M46.7027 0.443371C46.7027 0.443371 46.7868 21.2841 34.0532 32.8101C21.3197 44.3361 0.590346 42.1829 0.590346 42.1829C0.590346 42.1829 0.506239 21.3422 13.2398 9.81613C25.9734 -1.7099 46.7027 0.443371 46.7027 0.443371Z" fill="#F2726C"/>
</g>
<defs>
<clipPath id="clip0_6224_125">
<rect width="47" height="67" fill="white"/>
</clipPath>
</defs>
</svg>
